epoch,accuracy,loss
0,0.07524235,1.0416073976742033
1,0.11445522,0.6290327374143193
0,0.075230695,1.0412810629840945
1,0.12654714,0.5272466633158316
2,0.14414877,0.3982987633069469
3,0.15355054,0.33819476268992604
4,0.15973823,0.3010138831279429
5,0.1640006,0.27493723156541827
6,0.16740356,0.2554260983814708
7,0.17011894,0.23927477420264417
8,0.17238195,0.2265427035774141
9,0.17432873,0.21569945518642336
10,0.17611733,0.20596170259964047
11,0.17757663,0.19772253067369114
12,0.17887193,0.19055950752901837
13,0.18011436,0.18456511422013847
14,0.18111618,0.17908719157698985
15,0.18201637,0.1740361323812068
16,0.18300156,0.1689867312422286
17,0.1836954,0.16487463050676857
18,0.18446897,0.1608593035363779
19,0.18522151,0.15742165211002723
20,0.18597475,0.1537392032288118
21,0.18661742,0.15091387357175584
22,0.18701607,0.14789001191706894
23,0.18769811,0.14524988927087196
24,0.18811426,0.1430459543534017
25,0.18857345,0.1409244113418387
26,0.18913028,0.13838090399777733
27,0.18930836,0.13648273819365708
28,0.18987969,0.1345310912736133
29,0.19021353,0.1325040530306348
30,0.19069944,0.13041399934161593
31,0.19100572,0.1290028800790764
32,0.19144444,0.12711948906965145
33,0.19185077,0.1257094264337043
34,0.1920658,0.12409581370326635
35,0.19233868,0.12328287090613259
36,0.1925847,0.12146823967959958
37,0.19295748,0.1200598468432489
38,0.1930281,0.1191623314538506
39,0.19337034,0.11770374929177588
40,0.19383778,0.1165496012412009
41,0.19387984,0.11526525067644536
42,0.19424269,0.11421207447198317
43,0.19445302,0.11341152634602483
44,0.19454269,0.11279062789333928
45,0.19479936,0.11151052821386617
46,0.19497886,0.110542872738927
47,0.1953562,0.10965087812667453
48,0.19533786,0.10866357773970568
49,0.19561373,0.10812786842606177
50,0.19581497,0.1067256684414712
51,0.1962365,0.10623414864688953
52,0.19617866,0.10538127222840099
53,0.19647953,0.10485217268319365
54,0.19652544,0.10383179476706006
55,0.19681509,0.10354327559259692
56,0.19684379,0.10250160809832289
57,0.19695649,0.10175290383839912
58,0.19721046,0.10146540619033835
59,0.19713685,0.10068203890236949
60,0.19749044,0.09994206375879529
61,0.19763654,0.09944902784903027
62,0.197799,0.09850119797525443
63,0.1978348,0.09821753586969845
64,0.1980595,0.09745017640126136
65,0.19812146,0.0973650627498954
66,0.19828206,0.09658306210165372
67,0.198323,0.09591568172184149
68,0.19844934,0.09575165260177464
69,0.19848628,0.09509950838309097
70,0.19881047,0.09441571639743034
71,0.19877736,0.09412514974448054
72,0.19918595,0.09330703140906765
73,0.19896041,0.09303465051594335
74,0.19924706,0.09277126294405125
75,0.19918454,0.09239558946128516
76,0.19951767,0.09156641432418812
77,0.19951952,0.09159314886010382
78,0.19940226,0.09095505058881703
79,0.19971906,0.0905807700725725
80,0.19978186,0.09012943577337197
81,0.19997714,0.08971308441201649
82,0.19994901,0.08917435502574646
83,0.20031823,0.08892294177643455
84,0.20005332,0.08831058589674852
85,0.20034169,0.08822675533368048
86,0.20036656,0.08793923645186145
87,0.20030375,0.0874626309409045
88,0.20044388,0.08725250950436636
89,0.20059353,0.08686987093658724
90,0.2006842,0.08672060259016916
91,0.20080031,0.0860860596558607
92,0.20076194,0.08575278153208901
93,0.20102742,0.0855598479030973
94,0.2009541,0.0853686029142355
95,0.20115462,0.08484210910717618
96,0.20120025,0.08473245105757363
97,0.20115662,0.08407368764820443
98,0.20123933,0.08413314188058472
99,0.20117097,0.08374618634095256
100,0.2013344,0.08344510449912583
101,0.20164622,0.08301353851434355
102,0.20151646,0.08294465008537666
103,0.20166953,0.08263966126639016
104,0.2016974,0.08235056087395831
105,0.20183198,0.08202728758486462
106,0.20168602,0.08193050601505439
107,0.20211011,0.08148178807748849
108,0.20181876,0.08110415510391884
109,0.20195264,0.08142037842450475
110,0.2021816,0.08074991445580075
111,0.20205013,0.08073339096438001
112,0.20224683,0.08056381509849771
113,0.20223105,0.08009479396142999
114,0.20234561,0.07996538469092818
115,0.20241567,0.07971362728108831
116,0.20235257,0.07977096373813293
117,0.20243685,0.07919957663873148
118,0.20245276,0.07909304166028329
119,0.20263411,0.07878047405864677
120,0.2026135,0.07846871262357437
121,0.20260313,0.07835492180510377
122,0.20279485,0.07833906072817952
123,0.20276487,0.07803024062454045
124,0.20283706,0.0779914701487651
125,0.20293342,0.07765082530505524
126,0.20297876,0.0772788179651796
127,0.202988,0.07724437597675203
128,0.20295303,0.07704397692150493
129,0.20309813,0.07673171898280741
130,0.20316778,0.07642076529348392
131,0.20326513,0.07642155933666626
132,0.20312656,0.0763455261312803
133,0.20328502,0.07610064028964139
134,0.2032964,0.07598474215942098
135,0.20339376,0.07582955415624598
136,0.20355009,0.07566064581639718
137,0.20325518,0.07544778218693071
138,0.2034506,0.07527252372305374
139,0.20348443,0.07523656322225353
140,0.20360509,0.0748058046435963
141,0.20371467,0.07471813353220594
142,0.20371991,0.07451872801016349
143,0.20366904,0.07442466325928404
144,0.20372021,0.07445273845700687
145,0.2038555,0.07421555141077561
146,0.20390028,0.07408181462290228
147,0.20386617,0.07371723591625881
148,0.20387824,0.07351066615880487
149,0.2039071,0.07344499575162491
150,0.20405035,0.07308451928867013
151,0.20414856,0.07318982534948373
152,0.20390056,0.07309638777943991
153,0.20419545,0.07288896271039848
154,0.20418097,0.07275352860811163
155,0.20423682,0.0724063707028627
156,0.20438534,0.0722729964416346
157,0.20429665,0.07203975405891595
158,0.20412043,0.07222594211090114
159,0.20436032,0.07180989104573843
160,0.20441504,0.07173051333445402
161,0.20443735,0.07173523303014287
162,0.2045664,0.0715103919699434
163,0.20435421,0.07159872282773479
164,0.20454308,0.07142140204632016
165,0.2045708,0.07120877312335742
166,0.20457195,0.07114564613269
167,0.2046531,0.07090734047521172
168,0.20457934,0.07049807591635354
169,0.2046015,0.0707519869774358
170,0.20486997,0.07029080823455013
171,0.20471334,0.07040284769612874
172,0.2047459,0.0701949369689597
173,0.20487282,0.07016807205845549
174,0.204837,0.06996992400491563
175,0.20488404,0.06984732131552679
176,0.20506397,0.06946739333319342
177,0.20488219,0.06953716345472342
178,0.20498182,0.06958592109020063
179,0.20487636,0.06945165132415891
180,0.20512849,0.0693933506512439
181,0.20497273,0.06907010009183914
182,0.20517638,0.06899971661361746
183,0.20511115,0.06899325993756489
184,0.20533016,0.06878392228413321
185,0.20521703,0.06884272154070419
186,0.20511925,0.06836884825729275
187,0.2052979,0.06853597783247348
188,0.20515706,0.06848017979345875
189,0.20530117,0.06821993237566804
190,0.20535006,0.06821232648257797
191,0.20531325,0.06804878866077316
192,0.20545451,0.06825863343206608
193,0.20555258,0.06780395648234404
194,0.20541614,0.06763696038594014
195,0.20554093,0.06777495754874104
196,0.20540947,0.06761399864405129
197,0.2054474,0.06750311918289749
198,0.20546432,0.06741949315134961
199,0.20545423,0.06734153145079115
